\relax 
\ifx\hyper@anchor\@undefined
\global \let \oldcontentsline\contentsline
\gdef \contentsline#1#2#3#4{\oldcontentsline{#1}{#2}{#3}}
\global \let \oldnewlabel\newlabel
\gdef \newlabel#1#2{\newlabelxx{#1}#2}
\gdef \newlabelxx#1#2#3#4#5#6{\oldnewlabel{#1}{{#2}{#3}}}
\AtEndDocument{\let \contentsline\oldcontentsline
\let \newlabel\oldnewlabel}
\else
\global \let \hyper@last\relax 
\fi

\select@language{english}
\@writefile{toc}{\select@language{english}}
\@writefile{lof}{\select@language{english}}
\@writefile{lot}{\select@language{english}}
\newlabel{index::doc}{{}{1}{\relax }{section*.2}{}}
\@writefile{toc}{\contentsline {chapter}{\numberline {1}pyFRET Tutorial}{3}{chapter.1}}
\@writefile{lof}{\addvspace {10\p@ }}
\@writefile{lot}{\addvspace {10\p@ }}
\newlabel{tutorial::doc}{{1}{3}{pyFRET Tutorial\relax }{chapter.1}{}}
\newlabel{tutorial:documentation-for-pyfret-pyfret-and-pyalex}{{1}{3}{pyFRET Tutorial\relax }{chapter.1}{}}
\newlabel{tutorial:pyfret-tutorial}{{1}{3}{pyFRET Tutorial\relax }{chapter.1}{}}
\@writefile{toc}{\contentsline {section}{\numberline {1.1}Installing pyFRET}{3}{section.1.1}}
\newlabel{tutorial:installing-pyfret}{{1.1}{3}{Installing pyFRET\relax }{section.1.1}{}}
\@writefile{toc}{\contentsline {subsection}{\numberline {1.1.1}Getting Python}{3}{subsection.1.1.1}}
\newlabel{tutorial:getting-python}{{1.1.1}{3}{Getting Python\relax }{subsection.1.1.1}{}}
\@writefile{toc}{\contentsline {subsection}{\numberline {1.1.2}Getting Anaconda}{3}{subsection.1.1.2}}
\newlabel{tutorial:getting-anaconda}{{1.1.2}{3}{Getting Anaconda\relax }{subsection.1.1.2}{}}
\@writefile{toc}{\contentsline {subsection}{\numberline {1.1.3}Getting Scikit learn}{4}{subsection.1.1.3}}
\newlabel{tutorial:getting-scikit-learn}{{1.1.3}{4}{Getting Scikit learn\relax }{subsection.1.1.3}{}}
\@writefile{toc}{\contentsline {subsection}{\numberline {1.1.4}Getting pyFRET}{4}{subsection.1.1.4}}
\newlabel{tutorial:getting-pyfret}{{1.1.4}{4}{Getting pyFRET\relax }{subsection.1.1.4}{}}
\newlabel{tutorial:scikit-learn}{{1.1.4}{4}{Getting pyFRET\relax }{subsection.1.1.4}{}}
\@writefile{toc}{\contentsline {section}{\numberline {1.2}Using pyFRET}{4}{section.1.2}}
\newlabel{tutorial:scipy}{{1.2}{4}{Using pyFRET\relax }{section.1.2}{}}
\newlabel{tutorial:using-pyfret}{{1.2}{4}{Using pyFRET\relax }{section.1.2}{}}
\@writefile{toc}{\contentsline {section}{\numberline {1.3}Using pyFRET.pyFRET}{5}{section.1.3}}
\newlabel{tutorial:using-pyfret-pyfret}{{1.3}{5}{Using pyFRET.pyFRET\relax }{section.1.3}{}}
\@writefile{toc}{\contentsline {section}{\numberline {1.4}Using pyFRET.pyALEX}{7}{section.1.4}}
\newlabel{tutorial:using-pyfret-pyalex}{{1.4}{7}{Using pyFRET.pyALEX\relax }{section.1.4}{}}
\newlabel{tutorial:reference}{{1.4}{7}{Using pyFRET.pyALEX\relax }{section.1.4}{}}
\@writefile{toc}{\contentsline {section}{\numberline {1.5}Using The Burst Search Algorithms}{10}{section.1.5}}
\newlabel{tutorial:using-the-burst-search-algorithms}{{1.5}{10}{Using The Burst Search Algorithms\relax }{section.1.5}{}}
\newlabel{tutorial:documentation}{{1.5}{10}{Using The Burst Search Algorithms\relax }{section.1.5}{}}
\@writefile{toc}{\contentsline {section}{\numberline {1.6}RASP: Recurrence Analysis of Single Particles}{12}{section.1.6}}
\newlabel{tutorial:rasp-recurrence-analysis-of-single-particles}{{1.6}{12}{RASP: Recurrence Analysis of Single Particles\relax }{section.1.6}{}}
\@writefile{toc}{\contentsline {section}{\numberline {1.7}The Sample Data}{13}{section.1.7}}
\newlabel{tutorial:the-sample-data}{{1.7}{13}{The Sample Data\relax }{section.1.7}{}}
\@writefile{toc}{\contentsline {chapter}{\numberline {2}pyFRET Reference}{15}{chapter.2}}
\@writefile{lof}{\addvspace {10\p@ }}
\@writefile{lot}{\addvspace {10\p@ }}
\newlabel{FRET_reference:module-pyFRET}{{2}{15}{pyFRET Reference\relax }{chapter.2}{}}
\newlabel{FRET_reference::doc}{{2}{15}{pyFRET Reference\relax }{chapter.2}{}}
\newlabel{FRET_reference:pyfret-reference}{{2}{15}{pyFRET Reference\relax }{chapter.2}{}}
\newlabel{FRET_reference:gedit}{{2}{15}{pyFRET Reference\relax }{chapter.2}{}}
\newlabel{FRET_reference:pyFRET.FRET_bursts}{{2}{15}{pyFRET Reference\relax }{section*.3}{}}
\newlabel{FRET_reference:pyFRET.FRET_bursts.RASP}{{2}{15}{pyFRET Reference\relax }{section*.4}{}}
\newlabel{FRET_reference:pyFRET.FRET_bursts.denoise_bursts}{{2}{15}{pyFRET Reference\relax }{section*.5}{}}
\newlabel{FRET_reference:pyFRET.FRET_bursts.scatter_intensity}{{2}{16}{pyFRET Reference\relax }{section*.6}{}}
\newlabel{FRET_reference:pyFRET.FRET_data}{{2}{16}{pyFRET Reference\relax }{section*.7}{}}
\newlabel{FRET_reference:pyFRET.FRET_data.APBS}{{2}{16}{pyFRET Reference\relax }{section*.8}{}}
\newlabel{FRET_reference:pyFRET.FRET_data.DCBS}{{2}{16}{pyFRET Reference\relax }{section*.9}{}}
\newlabel{FRET_reference:pyFRET.FRET_data.build_histogram}{{2}{16}{pyFRET Reference\relax }{section*.10}{}}
\newlabel{FRET_reference:pyFRET.FRET_data.make_3d_plot}{{2}{17}{pyFRET Reference\relax }{section*.11}{}}
\newlabel{FRET_reference:pyFRET.FRET_data.make_hex_plot}{{2}{17}{pyFRET Reference\relax }{section*.12}{}}
\newlabel{FRET_reference:pyFRET.FRET_data.proximity_ratio}{{2}{17}{pyFRET Reference\relax }{section*.13}{}}
\newlabel{FRET_reference:pyFRET.FRET_data.subtract_bckd}{{2}{18}{pyFRET Reference\relax }{section*.14}{}}
\newlabel{FRET_reference:pyFRET.FRET_data.subtract_crosstalk}{{2}{18}{pyFRET Reference\relax }{section*.15}{}}
\newlabel{FRET_reference:pyFRET.FRET_data.threshold_AND}{{2}{18}{pyFRET Reference\relax }{section*.16}{}}
\newlabel{FRET_reference:pyFRET.FRET_data.threshold_OR}{{2}{18}{pyFRET Reference\relax }{section*.17}{}}
\newlabel{FRET_reference:pyFRET.FRET_data.threshold_SUM}{{2}{18}{pyFRET Reference\relax }{section*.18}{}}
\newlabel{FRET_reference:pyFRET.fit_mixture}{{2}{18}{pyFRET Reference\relax }{section*.19}{}}
\newlabel{FRET_reference:pyFRET.parse_bin}{{2}{18}{pyFRET Reference\relax }{section*.20}{}}
\newlabel{FRET_reference:pyFRET.parse_csv}{{2}{19}{pyFRET Reference\relax }{section*.21}{}}
\@writefile{toc}{\contentsline {chapter}{\numberline {3}pyALEX Reference}{21}{chapter.3}}
\@writefile{lof}{\addvspace {10\p@ }}
\@writefile{lot}{\addvspace {10\p@ }}
\newlabel{ALEX_reference:module-pyALEX}{{3}{21}{pyALEX Reference\relax }{chapter.3}{}}
\newlabel{ALEX_reference::doc}{{3}{21}{pyALEX Reference\relax }{chapter.3}{}}
\newlabel{ALEX_reference:pyalex-reference}{{3}{21}{pyALEX Reference\relax }{chapter.3}{}}
\newlabel{ALEX_reference:pyALEX.ALEX_bursts}{{3}{21}{pyALEX Reference\relax }{section*.22}{}}
\newlabel{ALEX_reference:pyALEX.ALEX_bursts.denoise_bursts}{{3}{21}{pyALEX Reference\relax }{section*.23}{}}
\newlabel{ALEX_reference:pyALEX.ALEX_bursts.scatter_intensity}{{3}{21}{pyALEX Reference\relax }{section*.24}{}}
\newlabel{ALEX_reference:pyALEX.ALEX_data}{{3}{22}{pyALEX Reference\relax }{section*.25}{}}
\newlabel{ALEX_reference:pyALEX.ALEX_data.APBS}{{3}{22}{pyALEX Reference\relax }{section*.26}{}}
\newlabel{ALEX_reference:pyALEX.ALEX_data.DCBS}{{3}{22}{pyALEX Reference\relax }{section*.27}{}}
\newlabel{ALEX_reference:pyALEX.ALEX_data.build_histogram}{{3}{22}{pyALEX Reference\relax }{section*.28}{}}
\newlabel{ALEX_reference:pyALEX.ALEX_data.proximity_ratio}{{3}{23}{pyALEX Reference\relax }{section*.29}{}}
\newlabel{ALEX_reference:pyALEX.ALEX_data.scatter_hist}{{3}{23}{pyALEX Reference\relax }{section*.30}{}}
\newlabel{ALEX_reference:pyALEX.ALEX_data.stoichiometry}{{3}{23}{pyALEX Reference\relax }{section*.31}{}}
\newlabel{ALEX_reference:pyALEX.ALEX_data.stoichiometry_selection}{{3}{23}{pyALEX Reference\relax }{section*.32}{}}
\newlabel{ALEX_reference:pyALEX.ALEX_data.subtract_bckd}{{3}{24}{pyALEX Reference\relax }{section*.33}{}}
\newlabel{ALEX_reference:pyALEX.ALEX_data.subtract_crosstalk}{{3}{24}{pyALEX Reference\relax }{section*.34}{}}
\newlabel{ALEX_reference:pyALEX.ALEX_data.thresholder}{{3}{24}{pyALEX Reference\relax }{section*.35}{}}
\newlabel{ALEX_reference:pyALEX.fit_mixture}{{3}{24}{pyALEX Reference\relax }{section*.36}{}}
\newlabel{ALEX_reference:pyALEX.parse_bin}{{3}{24}{pyALEX Reference\relax }{section*.37}{}}
\newlabel{ALEX_reference:pyALEX.parse_csv}{{3}{24}{pyALEX Reference\relax }{section*.38}{}}
\@writefile{toc}{\contentsline {chapter}{\numberline {4}Indices and tables}{27}{chapter.4}}
\@writefile{lof}{\addvspace {10\p@ }}
\@writefile{lot}{\addvspace {10\p@ }}
\newlabel{index:indices-and-tables}{{4}{27}{Indices and tables\relax }{chapter.4}{}}
\@writefile{toc}{\contentsline {chapter}{Python Module Index}{29}{section*.39}}
\@writefile{toc}{\contentsline {chapter}{Index}{31}{section*.40}}
