Coefficients
188.16907769, 0.418422827061, 0.113833232578

Variance Matrix
14.6258469835,5.58050760856e-08,-0.00589880799716,
5.58050760856e-08,7.13681377789e-06,-7.24275645126e-11,
-0.00589880799716,-7.24275645126e-11,7.13706181784e-06,

Gauss Frequencies
0.01, 0.301438180856
0.03, 0.557526294669
0.05, 0.999830164281
0.07, 1.73852484152
0.09, 2.93109133583
0.11, 4.79150105673
0.13, 7.59464730902
0.15, 11.6717887285
0.17, 17.3924599005
0.19, 25.1291841644
0.21, 35.2038006525
0.23, 47.8183407482
0.25, 62.9786340963
0.27, 80.4240163005
0.29, 99.579986565
0.31, 119.550708596
0.33, 139.16372061
0.35, 157.07016266
0.37, 171.891792769
0.39, 182.393927138
0.41, 187.654676939
0.43, 187.19842778
0.45, 181.066783361
0.47, 169.812306719
0.49, 154.416363961
0.51, 136.148000587
0.53, 116.391964729
0.55, 96.4780498114
0.57, 77.5403609808
0.59, 60.4255909348
0.61, 45.657042875
0.63, 33.4494081907
0.65, 23.7608997823
0.67, 16.3655691038
0.69, 10.9293196364
0.71, 7.0769956402
0.73, 4.44322712976
0.75, 2.70484190235
0.77, 1.59653720195
0.79, 0.9137133815
0.81, 0.507031233781
0.83, 0.272805565878
0.85, 0.142319865822
0.87, 0.0719899065844
0.89, 0.0353078668278
0.91, 0.0167905582292
0.93, 0.00774198946467
0.95, 0.00346125664289
0.97, 0.00150040607532
