0.01, 0 
0.03, 0 
0.05, 0 
0.07, 0 
0.09, 2 
0.11, 0 
0.13, 5 
0.15, 0 
0.17, 1 
0.19, 0 
0.21, 0 
0.23, 3 
0.25, 6 
0.27, 3 
0.29, 3 
0.31, 2 
0.33, 8 
0.35, 4 
0.37, 9 
0.39, 12 
0.41, 5 
0.43, 7 
0.45, 7 
0.47, 13 
0.49, 9 
0.51, 15 
0.53, 17 
0.55, 22 
0.57, 24 
0.59, 33 
0.61, 32 
0.63, 41 
0.65, 51 
0.67, 55 
0.69, 77 
0.71, 76 
0.73, 74 
0.75, 93 
0.77, 104 
0.79, 89 
0.81, 79 
0.83, 42 
0.85, 35 
0.87, 13 
0.89, 3 
0.91, 0 
0.93, 0 
0.95, 0 
0.97, 0 
